…
``` r
anti_join(bakers,results,by = "first_name")
```

    ## # A tibble: 1 × 6
    ##   first_name last_name series baker_age baker_occupation hometown    
    ##   <chr>      <chr>      <dbl>     <dbl> <chr>            <chr>       
    ## 1 Jo         Wheatley       2        41 Housewife        Ongar, Essex

``` r
anti_join(results,bakes, by = c("series","episode"))
```

    ## # A tibble: 250 × 5
    ##    series episode first_name technical result
    ##     <dbl>   <dbl> <chr>          <dbl> <chr> 
    ##  1      9       1 Antony            12 IN    
    ##  2      9       1 Briony             2 IN    
    ##  3      9       1 Dan                4 IN    
    ##  4      9       1 Jon                5 IN    
    ##  5      9       1 Karen              6 IN    
    ##  6      9       1 Kim-Joy           10 IN    
    ##  7      9       1 Luke               8 IN    
    ##  8      9       1 Rahul              7 IN    
    ##  9      9       1 Ruby               1 IN    
    ## 10      9       1 Terry              9 IN    
    ## # ℹ 240 more rows
…
``` r
anti_join(bakers, bakes, by = "first_name")
```

    ## # A tibble: 23 × 6
    ##    first_name last_name       series baker_age baker_occupation         hometown
    ##    <chr>      <chr>            <dbl>     <dbl> <chr>                    <chr>   
    ##  1 Alice      Fevronia            10        28 Geography teacher        Essex   
    ##  2 Amelia     LeBruin             10        24 Fashion designer         Halifax 
    ##  3 Antony     Amourdoux            9        30 Banker                   London  
    ##  4 Briony     Williams             9        33 Full-time parent         Bristol 
    ##  5 Dan        Beasley-Harling      9        36 Full-time parent         London  
    ##  6 Dan        Chambers            10        32 Support worker           Rotherh…
    ##  7 Helena     Garcia              10        40 Online project manager   Leeds   
    ##  8 Henry      Bird                10        20 Student                  Durham  
    ##  9 Imelda     McCarron             9        33 Countryside recreation … County …
    ## 10 Jamie      Finn                10        20 Part-time waiter         Surrey  
    ## # ℹ 13 more rows

Through anti-join, we found that Baker Joanne from the 2nd series name
was mistyped as Jo in the bakers dataset. Therefore I fixed the typo in
the bakers dataset. (code below)

In addition, I found that information for the bakes during the 9th and
10th series are missing.

``` r
bakers|>
  mutate(first_name = ifelse(first_name == "Jo","Joanne", first_name))
```

    ## # A tibble: 120 × 6
    ##    first_name last_name   series baker_age baker_occupation             hometown
    ##    <chr>      <chr>        <dbl>     <dbl> <chr>                        <chr>   
    ##  1 Ali        Imdad            4        25 Charity worker               Saltley…
    ##  2 Alice      Fevronia        10        28 Geography teacher            Essex   
    ##  3 Alvin      Magallanes       6        37 Nurse                        Brackne…
    ##  4 Amelia     LeBruin         10        24 Fashion designer             Halifax 
    ##  5 Andrew     Smyth            7        25 Aerospace engineer           Derby /…
    ##  6 Annetha    Mills            1        30 Midwife                      Essex   
    ##  7 Antony     Amourdoux        9        30 Banker                       London  
    ##  8 Beca       Lyne-Pirkis      4        31 Military Wives' Choir Singer Aldersh…
    ##  9 Ben        Frazer           2        31 Graphic Designer             Northam…
    ## 10 Benjamina  Ebuehi           7        23 Teaching assistant           South L…
    ## # ℹ 110 more rows
…
